{
    "m_SGVersion": 2,
    "m_Type": "UnityEditor.ShaderGraph.GraphData",
    "m_ObjectId": "642d835610f64b9fad84ec933896a256",
    "m_Properties": [
        {
            "m_Id": "852d598f92074f3098138303f4ff4127"
        },
        {
            "m_Id": "73ebbf8f694c418da01ec9912b1fc873"
        },
        {
            "m_Id": "482a58749bf64584b7a99c44312a7802"
        },
        {
            "m_Id": "bbb37c1b15064f6a9dab074add9aafa9"
        }
    ],
    "m_Keywords": [],
    "m_Nodes": [
        {
            "m_Id": "af867df43401429cb9262905a082ff87"
        },
        {
            "m_Id": "8354b64634a046f8bf19c863e9b624c8"
        },
        {
            "m_Id": "452ade3cda154f89a06d392d71b8d371"
        },
        {
            "m_Id": "1fb3f35dadaf48a6940b3790eb13999a"
        },
        {
            "m_Id": "8c108aec6a2348b8bc923138605ca660"
        },
        {
            "m_Id": "dadb634fc9db4bfc9cd33f74567b4ad5"
        },
        {
            "m_Id": "3a7b7aa5840e4a859f81f04fa1eaa6a1"
        },
        {
            "m_Id": "7ef7e57573fb4a4e8233c7101840e3bb"
        },
        {
            "m_Id": "5baf0d166aeb4dada46c7d78fcff5133"
        },
        {
            "m_Id": "de0c61eb31b04f2e9501cca0cb93aca5"
        },
        {
            "m_Id": "3c857fbf289c403989c6ddac3a5806ec"
        },
        {
            "m_Id": "1d073c381c644574a9277488ba434510"
        },
        {
            "m_Id": "2f1f56678c0e4544aca65a8316cd4d03"
        },
        {
            "m_Id": "575433ca170941a89c18d7b56da4293f"
        },
        {
            "m_Id": "fd8634b8356341169c7b713757218477"
        },
        {
            "m_Id": "48680067aced424ab1cdd7735bd16483"
        },
        {
            "m_Id": "10f5f6bc9c974a399dc5f4d45cb28772"
        },
        {
            "m_Id": "dbcc16bcf0de4ae4a898dc9f495bc2a2"
        }
    ],
    "m_GroupDatas": [],
    "m_StickyNoteDatas": [],
    "m_Edges": [
        {
            "m_OutputSlot": {
                "m_Node": {
                    "m_Id": "10f5f6bc9c974a399dc5f4d45cb28772"
                },
                "m_SlotId": 0
            },
            "m_InputSlot": {
                "m_Node": {
                    "m_Id": "dbcc16bcf0de4ae4a898dc9f495bc2a2"
                },
                "m_SlotId": 1
            }
        },
        {
            "m_OutputSlot": {
                "m_Node": {
                    "m_Id": "1d073c381c644574a9277488ba434510"
                },
                "m_SlotId": 3
            },
            "m_InputSlot": {
                "m_Node": {
                    "m_Id": "2f1f56678c0e4544aca65a8316cd4d03"
                },
                "m_SlotId": 0
            }
        },
        {
            "m_OutputSlot": {
                "m_Node": {
                    "m_Id": "2f1f56678c0e4544aca65a8316cd4d03"
                },
                "m_SlotId": 3
            },
            "m_InputSlot": {
                "m_Node": {
                    "m_Id": "dbcc16bcf0de4ae4a898dc9f495bc2a2"
                },
                "m_SlotId": 0
            }
        },
        {
            "m_OutputSlot": {
                "m_Node": {
                    "m_Id": "3c857fbf289c403989c6ddac3a5806ec"
                },
                "m_SlotId": 0
            },
            "m_InputSlot": {
                "m_Node": {
                    "m_Id": "1d073c381c644574a9277488ba434510"
                },
                "m_SlotId": 2
            }
        },
        {
            "m_OutputSlot": {
                "m_Node": {
                    "m_Id": "3c857fbf289c403989c6ddac3a5806ec"
                },
                "m_SlotId": 0
            },
            "m_InputSlot": {
                "m_Node": {
                    "m_Id": "2f1f56678c0e4544aca65a8316cd4d03"
                },
                "m_SlotId": 1
            }
        },
        {
            "m_OutputSlot": {
                "m_Node": {
                    "m_Id": "48680067aced424ab1cdd7735bd16483"
                },
                "m_SlotId": 0
            },
            "m_InputSlot": {
                "m_Node": {
                    "m_Id": "dadb634fc9db4bfc9cd33f74567b4ad5"
                },
                "m_SlotId": 0
            }
        },
        {
            "m_OutputSlot": {
                "m_Node": {
                    "m_Id": "575433ca170941a89c18d7b56da4293f"
                },
                "m_SlotId": 0
            },
            "m_InputSlot": {
                "m_Node": {
                    "m_Id": "1d073c381c644574a9277488ba434510"
                },
                "m_SlotId": 0
            }
        },
        {
            "m_OutputSlot": {
                "m_Node": {
                    "m_Id": "dbcc16bcf0de4ae4a898dc9f495bc2a2"
                },
                "m_SlotId": 2
            },
            "m_InputSlot": {
                "m_Node": {
                    "m_Id": "1fb3f35dadaf48a6940b3790eb13999a"
                },
                "m_SlotId": 0
            }
        },
        {
            "m_OutputSlot": {
                "m_Node": {
                    "m_Id": "de0c61eb31b04f2e9501cca0cb93aca5"
                },
                "m_SlotId": 0
            },
            "m_InputSlot": {
                "m_Node": {
                    "m_Id": "1d073c381c644574a9277488ba434510"
                },
                "m_SlotId": 1
            }
        },
        {
            "m_OutputSlot": {
                "m_Node": {
                    "m_Id": "fd8634b8356341169c7b713757218477"
                },
                "m_SlotId": 0
            },
            "m_InputSlot": {
                "m_Node": {
                    "m_Id": "3a7b7aa5840e4a859f81f04fa1eaa6a1"
                },
                "m_SlotId": 0
            }
        }
    ],
    "m_VertexContext": {
        "m_Position": {
            "x": 1247.199951171875,
            "y": -18.40000343322754
        },
        "m_Blocks": [
            {
                "m_Id": "af867df43401429cb9262905a082ff87"
            },
            {
                "m_Id": "8354b64634a046f8bf19c863e9b624c8"
            },
            {
                "m_Id": "452ade3cda154f89a06d392d71b8d371"
            }
        ]
    },
    "m_FragmentContext": {
        "m_Position": {
            "x": 1247.199951171875,
            "y": 181.5999755859375
        },
        "m_Blocks": [
            {
                "m_Id": "1fb3f35dadaf48a6940b3790eb13999a"
            },
            {
                "m_Id": "8c108aec6a2348b8bc923138605ca660"
            },
            {
                "m_Id": "dadb634fc9db4bfc9cd33f74567b4ad5"
            },
            {
                "m_Id": "3a7b7aa5840e4a859f81f04fa1eaa6a1"
            },
            {
                "m_Id": "7ef7e57573fb4a4e8233c7101840e3bb"
            },
            {
                "m_Id": "5baf0d166aeb4dada46c7d78fcff5133"
            }
        ]
    },
    "m_PreviewData": {
        "serializedMesh": {
            "m_SerializedMesh": "{\"mesh\":{\"instanceID\":0}}",
            "m_Guid": ""
        }
    },
    "m_Path": "Shader Graphs",
    "m_ConcretePrecision": 0,
    "m_PreviewMode": 2,
    "m_OutputNode": {
        "m_Id": ""
    },
    "m_ActiveTargets": [
        {
            "m_Id": "05395b5a233346a4a839dfccebe3cf17"
        }
    ]
}

{
    "m_SGVersion": 0,
    "m_Type": "UnityEditor.ShaderGraph.Vector3MaterialSlot",
    "m_ObjectId": "0332915c68344c8ea2dd88ac7c39df72",
    "m_Id": 0,
    "m_DisplayName": "Out",
    "m_SlotType": 1,
    "m_Hidden": false,
    "m_ShaderOutputName": "Out",
    "m_StageCapability": 3,
    "m_Value": {
        "x": 0.0,
        "y": 0.0,
        "z": 0.0
    },
    "m_DefaultValue": {
        "x": 0.0,
        "y": 0.0,
        "z": 0.0
    },
    "m_Labels": []
}

{
    "m_SGVersion": 0,
    "m_Type": "UnityEditor.Rendering.Universal.ShaderGraph.UniversalTarget",
    "m_ObjectId": "05395b5a233346a4a839dfccebe3cf17",
    "m_ActiveSubTarget": {
        "m_Id": "d1b13d5a583343068be140b868db19e3"
    },
    "m_SurfaceType": 0,
    "m_AlphaMode": 0,
    "m_TwoSided": false,
    "m_AlphaClip": false,
    "m_CustomEditorGUI": ""
}

{
    "m_SGVersion": 0,
    "m_Type": "UnityEditor.ShaderGraph.NormalMaterialSlot",
    "m_ObjectId": "08a63f87feca4877b624ecc58be3bff8",
    "m_Id": 0,
    "m_DisplayName": "Normal",
    "m_SlotType": 0,
    "m_Hidden": false,
    "m_ShaderOutputName": "Normal",
    "m_StageCapability": 1,
    "m_Value": {
        "x": 0.0,
        "y": 0.0,
        "z": 0.0
    },
    "m_DefaultValue": {
        "x": 0.0,
        "y": 0.0,
        "z": 0.0
    },
    "m_Labels": [],
    "m_Space": 0
}

{
    "m_SGVersion": 0,
    "m_Type": "UnityEditor.ShaderGraph.PropertyNode",
    "m_ObjectId": "10f5f6bc9c974a399dc5f4d45cb28772",
    "m_Group": {
        "m_Id": ""
    },
    "m_Name": "Property",
    "m_DrawState": {
        "m_Expanded": true,
        "m_Position": {
            "serializedVersion": "2",
            "x": 351.9999694824219,
            "y": 526.4000244140625,
            "width": 107.99999237060547,
            "height": 34.400020599365237
        }
    },
    "m_Slots": [
        {
            "m_Id": "4861baed490a43cf9b5dc3beeb27ce09"
        }
    ],
    "synonyms": [],
    "m_Precision": 0,
    "m_PreviewExpanded": true,
    "m_PreviewMode": 0,
    "m_CustomColors": {
        "m_SerializableColors": []
    },
    "m_Property": {
        "m_Id": "bbb37c1b15064f6a9dab074add9aafa9"
    }
}

{
    "m_SGVersion": 1,
    "m_Type": "UnityEditor.ShaderGraph.CustomFunctionNode",
    "m_ObjectId": "1d073c381c644574a9277488ba434510",
    "m_Group": {
        "m_Id": ""
    },
    "m_Name": "Refract (Custom Function)",
    "m_DrawState": {
        "m_Expanded": true,
        "m_Position": {
            "serializedVersion": "2",
            "x": 176.79998779296876,
            "y": 167.20001220703126,
            "width": 207.99998474121095,
            "height": 326.4000244140625
        }
    },
    "m_Slots": [
        {
            "m_Id": "9fab809d925141bca7c99004641165ae"
        },
        {
            "m_Id": "8a7e4942b0454a6887b7ddd54bfee43f"
        },
        {
            "m_Id": "db0e35eba9b14bbb9a9c15e9febbf976"
        },
        {
            "m_Id": "c2db8f33ba5641fabe54943a7e2c0eeb"
        }
    ],
    "synonyms": [],
    "m_Precision": 0,
    "m_PreviewExpanded": true,
    "m_PreviewMode": 0,
    "m_CustomColors": {
        "m_SerializableColors": []
    },
    "m_SourceType": 1,
    "m_FunctionName": "Refract",
    "m_FunctionSource": "",
    "m_FunctionBody": "Out = refract(View, Normal, IOR);"
}

{
    "m_SGVersion": 0,
    "m_Type": "UnityEditor.ShaderGraph.BlockNode",
    "m_ObjectId": "1fb3f35dadaf48a6940b3790eb13999a",
    "m_Group": {
        "m_Id": ""
    },
    "m_Name": "SurfaceDescription.BaseColor",
    "m_DrawState": {
        "m_Expanded": true,
        "m_Position": {
            "serializedVersion": "2",
            "x": 0.0,
            "y": 0.0,
            "width": 0.0,
            "height": 0.0
        }
    },
    "m_Slots": [
        {
            "m_Id": "8fc9b8691b0e481fbedbbf3896a18700"
        }
    ],
    "synonyms": [],
    "m_Precision": 0,
    "m_PreviewExpanded": true,
    "m_PreviewMode": 0,
    "m_CustomColors": {
        "m_SerializableColors": []
    },
    "m_SerializedDescriptor": "SurfaceDescription.BaseColor"
}

{
    "m_SGVersion": 0,
    "m_Type": "UnityEditor.ShaderGraph.ReflectionProbeNode",
    "m_ObjectId": "2f1f56678c0e4544aca65a8316cd4d03",
    "m_Group": {
        "m_Id": ""
    },
    "m_Name": "Reflection Probe",
    "m_DrawState": {
        "m_Expanded": true,
        "m_Position": {
            "serializedVersion": "2",
            "x": 409.60003662109377,
            "y": -105.5999984741211,
            "width": 167.19998168945313,
            "height": 124.80000305175781
        }
    },
    "m_Slots": [
        {
            "m_Id": "4348c545a6c643cda0d5f3b4578a26c6"
        },
        {
            "m_Id": "550a4c11c5e44e26bedce884ed074aad"
        },
        {
            "m_Id": "7ce399ea1af84bba9521b51f44da8a2a"
        },
        {
            "m_Id": "d1143d761b9f4501a3b63bbf973d648d"
        }
    ],
    "synonyms": [],
    "m_Precision": 0,
    "m_PreviewExpanded": true,
    "m_PreviewMode": 0,
    "m_CustomColors": {
        "m_SerializableColors": []
    }
}

{
    "m_SGVersion": 0,
    "m_Type": "UnityEditor.ShaderGraph.PositionMaterialSlot",
    "m_ObjectId": "36cb49e8b4be4572a5d3c6c692b43cfc",
    "m_Id": 0,
    "m_DisplayName": "Position",
    "m_SlotType": 0,
    "m_Hidden": false,
    "m_ShaderOutputName": "Position",
    "m_StageCapability": 1,
    "m_Value": {
        "x": 0.0,
        "y": 0.0,
        "z": 0.0
    },
    "m_DefaultValue": {
        "x": 0.0,
        "y": 0.0,
        "z": 0.0
    },
    "m_Labels": [],
    "m_Space": 0
}

{
    "m_SGVersion": 0,
    "m_Type": "UnityEditor.ShaderGraph.BlockNode",
    "m_ObjectId": "3a7b7aa5840e4a859f81f04fa1eaa6a1",
    "m_Group": {
        "m_Id": ""
    },
    "m_Name": "SurfaceDescription.Smoothness",
    "m_DrawState": {
        "m_Expanded": true,
        "m_Position": {
            "serializedVersion": "2",
            "x": 0.0,
            "y": 0.0,
            "width": 0.0,
            "height": 0.0
        }
    },
    "m_Slots": [
        {
            "m_Id": "4b774b861a7e4534b894f79c41803f9c"
        }
    ],
    "synonyms": [],
    "m_Precision": 0,
    "m_PreviewExpanded": true,
    "m_PreviewMode": 0,
    "m_CustomColors": {
        "m_SerializableColors": []
    },
    "m_SerializedDescriptor": "SurfaceDescription.Smoothness"
}

{
    "m_SGVersion": 0,
    "m_Type": "UnityEditor.ShaderGraph.Vector1MaterialSlot",
    "m_ObjectId": "3bead6b94bf64f4b9b5075742be81712",
    "m_Id": 0,
    "m_DisplayName": "Smoothness",
    "m_SlotType": 1,
    "m_Hidden": false,
    "m_ShaderOutputName": "Out",
    "m_StageCapability": 3,
    "m_Value": 0.0,
    "m_DefaultValue": 0.0,
    "m_Labels": []
}

{
    "m_SGVersion": 0,
    "m_Type": "UnityEditor.ShaderGraph.NormalVectorNode",
    "m_ObjectId": "3c857fbf289c403989c6ddac3a5806ec",
    "m_Group": {
        "m_Id": ""
    },
    "m_Name": "Normal Vector",
    "m_DrawState": {
        "m_Expanded": true,
        "m_Position": {
            "serializedVersion": "2",
            "x": -274.4000244140625,
            "y": 326.4000244140625,
            "width": 205.60000610351563,
            "height": 131.20001220703126
        }
    },
    "m_Slots": [
        {
            "m_Id": "69df6ec271e84169bcbd90aa078e67e5"
        }
    ],
    "synonyms": [],
    "m_Precision": 0,
    "m_PreviewExpanded": false,
    "m_PreviewMode": 2,
    "m_CustomColors": {
        "m_SerializableColors": []
    },
    "m_Space": 2
}

{
    "m_SGVersion": 0,
    "m_Type": "UnityEditor.ShaderGraph.ColorRGBMaterialSlot",
    "m_ObjectId": "3e6007920c694b7bb4caa9430321cee6",
    "m_Id": 0,
    "m_DisplayName": "Emission",
    "m_SlotType": 0,
    "m_Hidden": false,
    "m_ShaderOutputName": "Emission",
    "m_StageCapability": 2,
    "m_Value": {
        "x": 0.0,
        "y": 0.0,
        "z": 0.0
    },
    "m_DefaultValue": {
        "x": 0.0,
        "y": 0.0,
        "z": 0.0
    },
    "m_Labels": [],
    "m_ColorMode": 1,
    "m_DefaultColor": {
        "r": 0.0,
        "g": 0.0,
        "b": 0.0,
        "a": 1.0
    }
}

{
    "m_SGVersion": 0,
    "m_Type": "UnityEditor.ShaderGraph.ViewDirectionMaterialSlot",
    "m_ObjectId": "4348c545a6c643cda0d5f3b4578a26c6",
    "m_Id": 0,
    "m_DisplayName": "View Dir",
    "m_SlotType": 0,
    "m_Hidden": false,
    "m_ShaderOutputName": "ViewDir",
    "m_StageCapability": 3,
    "m_Value": {
        "x": 0.0,
        "y": 0.0,
        "z": 0.0
    },
    "m_DefaultValue": {
        "x": 0.0,
        "y": 0.0,
        "z": 0.0
    },
    "m_Labels": [],
    "m_Space": 0
}

{
    "m_SGVersion": 0,
    "m_Type": "UnityEditor.ShaderGraph.BlockNode",
    "m_ObjectId": "452ade3cda154f89a06d392d71b8d371",
    "m_Group": {
        "m_Id": ""
    },
    "m_Name": "VertexDescription.Tangent",
    "m_DrawState": {
        "m_Expanded": true,
        "m_Position": {
            "serializedVersion": "2",
            "x": 0.0,
            "y": 0.0,
            "width": 0.0,
            "height": 0.0
        }
    },
    "m_Slots": [
        {
            "m_Id": "e9416effa4b84f9d8e4d18b04e712686"
        }
    ],
    "synonyms": [],
    "m_Precision": 0,
    "m_PreviewExpanded": true,
    "m_PreviewMode": 0,
    "m_CustomColors": {
        "m_SerializableColors": []
    },
    "m_SerializedDescriptor": "VertexDescription.Tangent"
}

{
    "m_SGVersion": 1,
    "m_Type": "UnityEditor.ShaderGraph.Internal.Vector1ShaderProperty",
    "m_ObjectId": "482a58749bf64584b7a99c44312a7802",
    "m_Guid": {
        "m_GuidSerialized": "4a418e0b-058d-4dbe-8076-69c7d8fd4dac"
    },
    "m_Name": "IOR",
    "m_DefaultReferenceName": "Vector1_482a58749bf64584b7a99c44312a7802",
    "m_OverrideReferenceName": "",
    "m_GeneratePropertyBlock": true,
    "m_Precision": 0,
    "overrideHLSLDeclaration": false,
    "hlslDeclarationOverride": 0,
    "m_Hidden": false,
    "m_Value": 0.0,
    "m_FloatType": 1,
    "m_RangeValues": {
        "x": -1.0,
        "y": 1.0
    }
}

{
    "m_SGVersion": 0,
    "m_Type": "UnityEditor.ShaderGraph.Vector4MaterialSlot",
    "m_ObjectId": "4861baed490a43cf9b5dc3beeb27ce09",
    "m_Id": 0,
    "m_DisplayName": "Color",
    "m_SlotType": 1,
    "m_Hidden": false,
    "m_ShaderOutputName": "Out",
    "m_StageCapability": 3,
    "m_Value": {
        "x": 0.0,
        "y": 0.0,
        "z": 0.0,
        "w": 0.0
    },
    "m_DefaultValue": {
        "x": 0.0,
        "y": 0.0,
        "z": 0.0,
        "w": 0.0
    },
    "m_Labels": []
}

{
    "m_SGVersion": 0,
    "m_Type": "UnityEditor.ShaderGraph.PropertyNode",
    "m_ObjectId": "48680067aced424ab1cdd7735bd16483",
    "m_Group": {
        "m_Id": ""
    },
    "m_Name": "Property",
    "m_DrawState": {
        "m_Expanded": true,
        "m_Position": {
            "serializedVersion": "2",
            "x": 668.0,
            "y": 403.2000427246094,
            "width": 116.00000762939453,
            "height": 33.5999755859375
        }
    },
    "m_Slots": [
        {
            "m_Id": "50d3c9a962e44a22b3f4a80b6006d788"
        }
    ],
    "synonyms": [],
    "m_Precision": 0,
    "m_PreviewExpanded": true,
    "m_PreviewMode": 0,
    "m_CustomColors": {
        "m_SerializableColors": []
    },
    "m_Property": {
        "m_Id": "73ebbf8f694c418da01ec9912b1fc873"
    }
}

{
    "m_SGVersion": 0,
    "m_Type": "UnityEditor.ShaderGraph.Vector1MaterialSlot",
    "m_ObjectId": "4b774b861a7e4534b894f79c41803f9c",
    "m_Id": 0,
    "m_DisplayName": "Smoothness",
    "m_SlotType": 0,
    "m_Hidden": false,
    "m_ShaderOutputName": "Smoothness",
    "m_StageCapability": 2,
    "m_Value": 0.5,
    "m_DefaultValue": 0.5,
    "m_Labels": []
}

{
    "m_SGVersion": 0,
    "m_Type": "UnityEditor.ShaderGraph.Vector1MaterialSlot",
    "m_ObjectId": "50d3c9a962e44a22b3f4a80b6006d788",
    "m_Id": 0,
    "m_DisplayName": "Metalic",
    "m_SlotType": 1,
    "m_Hidden": false,
    "m_ShaderOutputName": "Out",
    "m_StageCapability": 3,
    "m_Value": 0.0,
    "m_DefaultValue": 0.0,
    "m_Labels": []
}

{
    "m_SGVersion": 0,
    "m_Type": "UnityEditor.ShaderGraph.NormalMaterialSlot",
    "m_ObjectId": "550a4c11c5e44e26bedce884ed074aad",
    "m_Id": 1,
    "m_DisplayName": "Normal",
    "m_SlotType": 0,
    "m_Hidden": false,
    "m_ShaderOutputName": "Normal",
    "m_StageCapability": 3,
    "m_Value": {
        "x": 0.0,
        "y": 0.0,
        "z": 0.0
    },
    "m_DefaultValue": {
        "x": 0.0,
        "y": 0.0,
        "z": 0.0
    },
    "m_Labels": [],
    "m_Space": 0
}

{
    "m_SGVersion": 0,
    "m_Type": "UnityEditor.ShaderGraph.PropertyNode",
    "m_ObjectId": "575433ca170941a89c18d7b56da4293f",
    "m_Group": {
        "m_Id": ""
    },
    "m_Name": "Property",
    "m_DrawState": {
        "m_Expanded": true,
        "m_Position": {
            "serializedVersion": "2",
            "x": -61.60000991821289,
            "y": 73.60000610351563,
            "width": 93.60000610351563,
            "height": 34.40000915527344
        }
    },
    "m_Slots": [
        {
            "m_Id": "c9bef43ce2d042ab95000f75424187e2"
        }
    ],
    "synonyms": [],
    "m_Precision": 0,
    "m_PreviewExpanded": true,
    "m_PreviewMode": 0,
    "m_CustomColors": {
        "m_SerializableColors": []
    },
    "m_Property": {
        "m_Id": "482a58749bf64584b7a99c44312a7802"
    }
}

{
    "m_SGVersion": 0,
    "m_Type": "UnityEditor.ShaderGraph.BlockNode",
    "m_ObjectId": "5baf0d166aeb4dada46c7d78fcff5133",
    "m_Group": {
        "m_Id": ""
    },
    "m_Name": "SurfaceDescription.Occlusion",
    "m_DrawState": {
        "m_Expanded": true,
        "m_Position": {
            "serializedVersion": "2",
            "x": 0.0,
            "y": 0.0,
            "width": 0.0,
            "height": 0.0
        }
    },
    "m_Slots": [
        {
            "m_Id": "bb6f0c6cd79b401b8aad56c83530987a"
        }
    ],
    "synonyms": [],
    "m_Precision": 0,
    "m_PreviewExpanded": true,
    "m_PreviewMode": 0,
    "m_CustomColors": {
        "m_SerializableColors": []
    },
    "m_SerializedDescriptor": "SurfaceDescription.Occlusion"
}

{
    "m_SGVersion": 0,
    "m_Type": "UnityEditor.ShaderGraph.Vector3MaterialSlot",
    "m_ObjectId": "69df6ec271e84169bcbd90aa078e67e5",
    "m_Id": 0,
    "m_DisplayName": "Out",
    "m_SlotType": 1,
    "m_Hidden": false,
    "m_ShaderOutputName": "Out",
    "m_StageCapability": 3,
    "m_Value": {
        "x": 0.0,
        "y": 0.0,
        "z": 1.0
    },
    "m_DefaultValue": {
        "x": 0.0,
        "y": 0.0,
        "z": 0.0
    },
    "m_Labels": []
}

{
    "m_SGVersion": 1,
    "m_Type": "UnityEditor.ShaderGraph.Internal.Vector1ShaderProperty",
    "m_ObjectId": "73ebbf8f694c418da01ec9912b1fc873",
    "m_Guid": {
        "m_GuidSerialized": "f0951988-411f-485d-9b07-8b215b768774"
    },
    "m_Name": "Metalic",
    "m_DefaultReferenceName": "Vector1_73ebbf8f694c418da01ec9912b1fc873",
    "m_OverrideReferenceName": "",
    "m_GeneratePropertyBlock": true,
    "m_Precision": 0,
    "overrideHLSLDeclaration": false,
    "hlslDeclarationOverride": 0,
    "m_Hidden": false,
    "m_Value": 0.0,
    "m_FloatType": 1,
    "m_RangeValues": {
        "x": 0.0,
        "y": 1.0
    }
}

{
    "m_SGVersion": 0,
    "m_Type": "UnityEditor.ShaderGraph.DynamicVectorMaterialSlot",
    "m_ObjectId": "7c0c7c2d72434362861202df18836899",
    "m_Id": 1,
    "m_DisplayName": "B",
    "m_SlotType": 0,
    "m_Hidden": false,
    "m_ShaderOutputName": "B",
    "m_StageCapability": 3,
    "m_Value": {
        "x": 0.0,
        "y": 0.0,
        "z": 0.0,
        "w": 0.0
    },
    "m_DefaultValue": {
        "x": 0.0,
        "y": 0.0,
        "z": 0.0,
        "w": 0.0
    }
}

{
    "m_SGVersion": 0,
    "m_Type": "UnityEditor.ShaderGraph.Vector1MaterialSlot",
    "m_ObjectId": "7ce399ea1af84bba9521b51f44da8a2a",
    "m_Id": 2,
    "m_DisplayName": "LOD",
    "m_SlotType": 0,
    "m_Hidden": false,
    "m_ShaderOutputName": "LOD",
    "m_StageCapability": 3,
    "m_Value": 0.0,
    "m_DefaultValue": 0.0,
    "m_Labels": []
}

{
    "m_SGVersion": 0,
    "m_Type": "UnityEditor.ShaderGraph.BlockNode",
    "m_ObjectId": "7ef7e57573fb4a4e8233c7101840e3bb",
    "m_Group": {
        "m_Id": ""
    },
    "m_Name": "SurfaceDescription.Emission",
    "m_DrawState": {
        "m_Expanded": true,
        "m_Position": {
            "serializedVersion": "2",
            "x": 0.0,
            "y": 0.0,
            "width": 0.0,
            "height": 0.0
        }
    },
    "m_Slots": [
        {
            "m_Id": "3e6007920c694b7bb4caa9430321cee6"
        }
    ],
    "synonyms": [],
    "m_Precision": 0,
    "m_PreviewExpanded": true,
    "m_PreviewMode": 0,
    "m_CustomColors": {
        "m_SerializableColors": []
    },
    "m_SerializedDescriptor": "SurfaceDescription.Emission"
}

{
    "m_SGVersion": 0,
    "m_Type": "UnityEditor.ShaderGraph.BlockNode",
    "m_ObjectId": "8354b64634a046f8bf19c863e9b624c8",
    "m_Group": {
        "m_Id": ""
    },
    "m_Name": "VertexDescription.Normal",
    "m_DrawState": {
        "m_Expanded": true,
        "m_Position": {
            "serializedVersion": "2",
            "x": 0.0,
            "y": 0.0,
            "width": 0.0,
            "height": 0.0
        }
    },
    "m_Slots": [
        {
            "m_Id": "08a63f87feca4877b624ecc58be3bff8"
        }
    ],
    "synonyms": [],
    "m_Precision": 0,
    "m_PreviewExpanded": true,
    "m_PreviewMode": 0,
    "m_CustomColors": {
        "m_SerializableColors": []
    },
    "m_SerializedDescriptor": "VertexDescription.Normal"
}

{
    "m_SGVersion": 1,
    "m_Type": "UnityEditor.ShaderGraph.Internal.Vector1ShaderProperty",
    "m_ObjectId": "852d598f92074f3098138303f4ff4127",
    "m_Guid": {
        "m_GuidSerialized": "e0441973-98a7-4d4a-ab4f-51a1a2d4535f"
    },
    "m_Name": "Smoothness",
    "m_DefaultReferenceName": "Vector1_852d598f92074f3098138303f4ff4127",
    "m_OverrideReferenceName": "",
    "m_GeneratePropertyBlock": true,
    "m_Precision": 0,
    "overrideHLSLDeclaration": false,
    "hlslDeclarationOverride": 0,
    "m_Hidden": false,
    "m_Value": 0.0,
    "m_FloatType": 1,
    "m_RangeValues": {
        "x": 0.0,
        "y": 1.0
    }
}

{
    "m_SGVersion": 0,
    "m_Type": "UnityEditor.ShaderGraph.Vector3MaterialSlot",
    "m_ObjectId": "8a7e4942b0454a6887b7ddd54bfee43f",
    "m_Id": 1,
    "m_DisplayName": "View",
    "m_SlotType": 0,
    "m_Hidden": false,
    "m_ShaderOutputName": "View",
    "m_StageCapability": 3,
    "m_Value": {
        "x": 0.0,
        "y": 0.0,
        "z": 0.0
    },
    "m_DefaultValue": {
        "x": 0.0,
        "y": 0.0,
        "z": 0.0
    },
    "m_Labels": []
}

{
    "m_SGVersion": 0,
    "m_Type": "UnityEditor.ShaderGraph.BlockNode",
    "m_ObjectId": "8c108aec6a2348b8bc923138605ca660",
    "m_Group": {
        "m_Id": ""
    },
    "m_Name": "SurfaceDescription.NormalTS",
    "m_DrawState": {
        "m_Expanded": true,
        "m_Position": {
            "serializedVersion": "2",
            "x": 0.0,
            "y": 0.0,
            "width": 0.0,
            "height": 0.0
        }
    },
    "m_Slots": [
        {
            "m_Id": "cdebfc3d472b47a5b679e80373ab7b9b"
        }
    ],
    "synonyms": [],
    "m_Precision": 0,
    "m_PreviewExpanded": true,
    "m_PreviewMode": 0,
    "m_CustomColors": {
        "m_SerializableColors": []
    },
    "m_SerializedDescriptor": "SurfaceDescription.NormalTS"
}

{
    "m_SGVersion": 0,
    "m_Type": "UnityEditor.ShaderGraph.ColorRGBMaterialSlot",
    "m_ObjectId": "8fc9b8691b0e481fbedbbf3896a18700",
    "m_Id": 0,
    "m_DisplayName": "Base Color",
    "m_SlotType": 0,
    "m_Hidden": false,
    "m_ShaderOutputName": "BaseColor",
    "m_StageCapability": 2,
    "m_Value": {
        "x": 0.5,
        "y": 0.5,
        "z": 0.5
    },
    "m_DefaultValue": {
        "x": 0.0,
        "y": 0.0,
        "z": 0.0
    },
    "m_Labels": [],
    "m_ColorMode": 0,
    "m_DefaultColor": {
        "r": 0.5,
        "g": 0.5,
        "b": 0.5,
        "a": 1.0
    }
}

{
    "m_SGVersion": 0,
    "m_Type": "UnityEditor.ShaderGraph.Vector1MaterialSlot",
    "m_ObjectId": "9fab809d925141bca7c99004641165ae",
    "m_Id": 0,
    "m_DisplayName": "IOR",
    "m_SlotType": 0,
    "m_Hidden": false,
    "m_ShaderOutputName": "IOR",
    "m_StageCapability": 3,
    "m_Value": 0.0,
    "m_DefaultValue": 0.0,
    "m_Labels": []
}

{
    "m_SGVersion": 0,
    "m_Type": "UnityEditor.ShaderGraph.BlockNode",
    "m_ObjectId": "af867df43401429cb9262905a082ff87",
    "m_Group": {
        "m_Id": ""
    },
    "m_Name": "VertexDescription.Position",
    "m_DrawState": {
        "m_Expanded": true,
        "m_Position": {
            "serializedVersion": "2",
            "x": 0.0,
            "y": 0.0,
            "width": 0.0,
            "height": 0.0
        }
    },
    "m_Slots": [
        {
            "m_Id": "36cb49e8b4be4572a5d3c6c692b43cfc"
        }
    ],
    "synonyms": [],
    "m_Precision": 0,
    "m_PreviewExpanded": true,
    "m_PreviewMode": 0,
    "m_CustomColors": {
        "m_SerializableColors": []
    },
    "m_SerializedDescriptor": "VertexDescription.Position"
}

{
    "m_SGVersion": 0,
    "m_Type": "UnityEditor.ShaderGraph.DynamicVectorMaterialSlot",
    "m_ObjectId": "b2fca34bb2f94b5187980536a1b90773",
    "m_Id": 2,
    "m_DisplayName": "Out",
    "m_SlotType": 1,
    "m_Hidden": false,
    "m_ShaderOutputName": "Out",
    "m_StageCapability": 3,
    "m_Value": {
        "x": 0.0,
        "y": 0.0,
        "z": 0.0,
        "w": 0.0
    },
    "m_DefaultValue": {
        "x": 0.0,
        "y": 0.0,
        "z": 0.0,
        "w": 0.0
    }
}

{
    "m_SGVersion": 0,
    "m_Type": "UnityEditor.ShaderGraph.Vector1MaterialSlot",
    "m_ObjectId": "bb6f0c6cd79b401b8aad56c83530987a",
    "m_Id": 0,
    "m_DisplayName": "Ambient Occlusion",
    "m_SlotType": 0,
    "m_Hidden": false,
    "m_ShaderOutputName": "Occlusion",
    "m_StageCapability": 2,
    "m_Value": 1.0,
    "m_DefaultValue": 1.0,
    "m_Labels": []
}

{
    "m_SGVersion": 3,
    "m_Type": "UnityEditor.ShaderGraph.Internal.ColorShaderProperty",
    "m_ObjectId": "bbb37c1b15064f6a9dab074add9aafa9",
    "m_Guid": {
        "m_GuidSerialized": "585c174e-a7e0-47bd-a32f-fce6b78e2b7f"
    },
    "m_Name": "Color",
    "m_DefaultReferenceName": "Color_bbb37c1b15064f6a9dab074add9aafa9",
    "m_OverrideReferenceName": "",
    "m_GeneratePropertyBlock": true,
    "m_Precision": 0,
    "overrideHLSLDeclaration": false,
    "hlslDeclarationOverride": 0,
    "m_Hidden": false,
    "m_Value": {
        "r": 0.18431372940540315,
        "g": 0.7764706015586853,
        "b": 0.8313725590705872,
        "a": 0.7529411911964417
    },
    "m_ColorMode": 1
}

{
    "m_SGVersion": 0,
    "m_Type": "UnityEditor.ShaderGraph.Vector3MaterialSlot",
    "m_ObjectId": "c2db8f33ba5641fabe54943a7e2c0eeb",
    "m_Id": 3,
    "m_DisplayName": "Out",
    "m_SlotType": 1,
    "m_Hidden": false,
    "m_ShaderOutputName": "Out",
    "m_StageCapability": 3,
    "m_Value": {
        "x": 0.0,
        "y": 0.0,
        "z": 0.0
    },
    "m_DefaultValue": {
        "x": 0.0,
        "y": 0.0,
        "z": 0.0
    },
    "m_Labels": []
}

{
    "m_SGVersion": 0,
    "m_Type": "UnityEditor.ShaderGraph.DynamicVectorMaterialSlot",
    "m_ObjectId": "c8bf230cd26d42178afbd7643ec3ff5a",
    "m_Id": 0,
    "m_DisplayName": "A",
    "m_SlotType": 0,
    "m_Hidden": false,
    "m_ShaderOutputName": "A",
    "m_StageCapability": 3,
    "m_Value": {
        "x": 0.0,
        "y": 0.0,
        "z": 0.0,
        "w": 0.0
    },
    "m_DefaultValue": {
        "x": 0.0,
        "y": 0.0,
        "z": 0.0,
        "w": 0.0
    }
}

{
    "m_SGVersion": 0,
    "m_Type": "UnityEditor.ShaderGraph.Vector1MaterialSlot",
    "m_ObjectId": "c9bef43ce2d042ab95000f75424187e2",
    "m_Id": 0,
    "m_DisplayName": "IOR",
    "m_SlotType": 1,
    "m_Hidden": false,
    "m_ShaderOutputName": "Out",
    "m_StageCapability": 3,
    "m_Value": 0.0,
    "m_DefaultValue": 0.0,
    "m_Labels": []
}

{
    "m_SGVersion": 0,
    "m_Type": "UnityEditor.ShaderGraph.NormalMaterialSlot",
    "m_ObjectId": "cdebfc3d472b47a5b679e80373ab7b9b",
    "m_Id": 0,
    "m_DisplayName": "Normal (Tangent Space)",
    "m_SlotType": 0,
    "m_Hidden": false,
    "m_ShaderOutputName": "NormalTS",
    "m_StageCapability": 2,
    "m_Value": {
        "x": 0.0,
        "y": 0.0,
        "z": 0.0
    },
    "m_DefaultValue": {
        "x": 0.0,
        "y": 0.0,
        "z": 0.0
    },
    "m_Labels": [],
    "m_Space": 3
}

{
    "m_SGVersion": 0,
    "m_Type": "UnityEditor.ShaderGraph.Vector3MaterialSlot",
    "m_ObjectId": "d1143d761b9f4501a3b63bbf973d648d",
    "m_Id": 3,
    "m_DisplayName": "Out",
    "m_SlotType": 1,
    "m_Hidden": false,
    "m_ShaderOutputName": "Out",
    "m_StageCapability": 3,
    "m_Value": {
        "x": 0.0,
        "y": 0.0,
        "z": 0.0
    },
    "m_DefaultValue": {
        "x": 0.0,
        "y": 0.0,
        "z": 0.0
    },
    "m_Labels": []
}

{
    "m_SGVersion": 0,
    "m_Type": "UnityEditor.Rendering.Universal.ShaderGraph.UniversalLitSubTarget",
    "m_ObjectId": "d1b13d5a583343068be140b868db19e3",
    "m_WorkflowMode": 1,
    "m_NormalDropOffSpace": 0,
    "m_ClearCoat": false
}

{
    "m_SGVersion": 0,
    "m_Type": "UnityEditor.ShaderGraph.Vector1MaterialSlot",
    "m_ObjectId": "d2dd9de988ad485e96ac610dd3277088",
    "m_Id": 0,
    "m_DisplayName": "Metallic",
    "m_SlotType": 0,
    "m_Hidden": false,
    "m_ShaderOutputName": "Metallic",
    "m_StageCapability": 2,
    "m_Value": 0.0,
    "m_DefaultValue": 0.0,
    "m_Labels": []
}

{
    "m_SGVersion": 0,
    "m_Type": "UnityEditor.ShaderGraph.BlockNode",
    "m_ObjectId": "dadb634fc9db4bfc9cd33f74567b4ad5",
    "m_Group": {
        "m_Id": ""
    },
    "m_Name": "SurfaceDescription.Metallic",
    "m_DrawState": {
        "m_Expanded": true,
        "m_Position": {
            "serializedVersion": "2",
            "x": 0.0,
            "y": 0.0,
            "width": 0.0,
            "height": 0.0
        }
    },
    "m_Slots": [
        {
            "m_Id": "d2dd9de988ad485e96ac610dd3277088"
        }
    ],
    "synonyms": [],
    "m_Precision": 0,
    "m_PreviewExpanded": true,
    "m_PreviewMode": 0,
    "m_CustomColors": {
        "m_SerializableColors": []
    },
    "m_SerializedDescriptor": "SurfaceDescription.Metallic"
}

{
    "m_SGVersion": 0,
    "m_Type": "UnityEditor.ShaderGraph.Vector3MaterialSlot",
    "m_ObjectId": "db0e35eba9b14bbb9a9c15e9febbf976",
    "m_Id": 2,
    "m_DisplayName": "Normal",
    "m_SlotType": 0,
    "m_Hidden": false,
    "m_ShaderOutputName": "Normal",
    "m_StageCapability": 3,
    "m_Value": {
        "x": 0.0,
        "y": 0.0,
        "z": 0.0
    },
    "m_DefaultValue": {
        "x": 0.0,
        "y": 0.0,
        "z": 0.0
    },
    "m_Labels": []
}

{
    "m_SGVersion": 0,
    "m_Type": "UnityEditor.ShaderGraph.AddNode",
    "m_ObjectId": "dbcc16bcf0de4ae4a898dc9f495bc2a2",
    "m_Group": {
        "m_Id": ""
    },
    "m_Name": "Add",
    "m_DrawState": {
        "m_Expanded": true,
        "m_Position": {
            "serializedVersion": "2",
            "x": 727.199951171875,
            "y": 14.400022506713868,
            "width": 207.99998474121095,
            "height": 302.39996337890627
        }
    },
    "m_Slots": [
        {
            "m_Id": "c8bf230cd26d42178afbd7643ec3ff5a"
        },
        {
            "m_Id": "7c0c7c2d72434362861202df18836899"
        },
        {
            "m_Id": "b2fca34bb2f94b5187980536a1b90773"
        }
    ],
    "synonyms": [],
    "m_Precision": 0,
    "m_PreviewExpanded": true,
    "m_PreviewMode": 0,
    "m_CustomColors": {
        "m_SerializableColors": []
    }
}

{
    "m_SGVersion": 0,
    "m_Type": "UnityEditor.ShaderGraph.ViewDirectionNode",
    "m_ObjectId": "de0c61eb31b04f2e9501cca0cb93aca5",
    "m_Group": {
        "m_Id": ""
    },
    "m_Name": "View Direction",
    "m_DrawState": {
        "m_Expanded": true,
        "m_Position": {
            "serializedVersion": "2",
            "x": -264.79998779296877,
            "y": 145.60000610351563,
            "width": 206.40000915527345,
            "height": 131.20001220703126
        }
    },
    "m_Slots": [
        {
            "m_Id": "0332915c68344c8ea2dd88ac7c39df72"
        }
    ],
    "synonyms": [],
    "m_Precision": 0,
    "m_PreviewExpanded": false,
    "m_PreviewMode": 2,
    "m_CustomColors": {
        "m_SerializableColors": []
    },
    "m_Space": 2
}

{
    "m_SGVersion": 0,
    "m_Type": "UnityEditor.ShaderGraph.TangentMaterialSlot",
    "m_ObjectId": "e9416effa4b84f9d8e4d18b04e712686",
    "m_Id": 0,
    "m_DisplayName": "Tangent",
    "m_SlotType": 0,
    "m_Hidden": false,
    "m_ShaderOutputName": "Tangent",
    "m_StageCapability": 1,
    "m_Value": {
        "x": 0.0,
        "y": 0.0,
        "z": 0.0
    },
    "m_DefaultValue": {
        "x": 0.0,
        "y": 0.0,
        "z": 0.0
    },
    "m_Labels": [],
    "m_Space": 0
}

{
    "m_SGVersion": 0,
    "m_Type": "UnityEditor.ShaderGraph.PropertyNode",
    "m_ObjectId": "fd8634b8356341169c7b713757218477",
    "m_Group": {
        "m_Id": ""
    },
    "m_Name": "Property",
    "m_DrawState": {
        "m_Expanded": true,
        "m_Position": {
            "serializedVersion": "2",
            "x": 673.5633544921875,
            "y": 456.1356201171875,
            "width": 0.0,
            "height": 0.0
        }
    },
    "m_Slots": [
        {
            "m_Id": "3bead6b94bf64f4b9b5075742be81712"
        }
    ],
    "synonyms": [],
    "m_Precision": 0,
    "m_PreviewExpanded": true,
    "m_PreviewMode": 0,
    "m_CustomColors": {
        "m_SerializableColors": []
    },
    "m_Property": {
        "m_Id": "852d598f92074f3098138303f4ff4127"
    }
}

