%YAML 1.1
%TAG !u! tag:unity3d.com,2011:
--- !u!1 &3817380693580885339
GameObject:
  m_ObjectHideFlags: 0
  m_CorrespondingSourceObject: {fileID: 0}
  m_PrefabInstance: {fileID: 0}
  m_PrefabAsset: {fileID: 0}
  serializedVersion: 6
  m_Component:
  - component: {fileID: 2902830664155362927}
  m_Layer: 0
  m_Name: Tree_3
  m_TagString: Untagged
  m_Icon: {fileID: 0}
  m_NavMeshLayer: 0
  m_StaticEditorFlags: 0
  m_IsActive: 1
--- !u!4 &2902830664155362927
Transform:
  m_ObjectHideFlags: 0
  m_CorrespondingSourceObject: {fileID: 0}
  m_PrefabInstance: {fileID: 0}
  m_PrefabAsset: {fileID: 0}
  m_GameObject: {fileID: 3817380693580885339}
  m_LocalRotation: {x: 0, y: 0, z: 0, w: 1}
  m_LocalPosition: {x: 0, y: 0, z: 0}
  m_LocalScale: {x: 20, y: 20, z: 20}
  m_Children:
  - {fileID: 4348877735531515716}
  m_Father: {fileID: 0}
  m_RootOrder: 0
  m_LocalEulerAnglesHint: {x: 0, y: 0, z: 0}
--- !u!1001 &4310200201400510639
PrefabInstance:
  m_ObjectHideFlags: 0
  serializedVersion: 2
  m_Modification:
    m_TransformParent: {fileID: 2902830664155362927}
    m_Modifications:
    - target: {fileID: -8679921383154817045, guid: a55c5aac5cb6bce42b5eadc701af911c, type: 3}
      propertyPath: m_RootOrder
      value: 0
      objectReference: {fileID: 0}
    - target: {fileID: -8679921383154817045, guid: a55c5aac5cb6bce42b5eadc701af911c, type: 3}
      propertyPath: m_LocalPosition.x
      value: -0.0239
      objectReference: {fileID: 0}
    - target: {fileID: -8679921383154817045, guid: a55c5aac5cb6bce42b5eadc701af911c, type: 3}
      propertyPath: m_LocalPosition.y
      value: 0.1209
      objectReference: {fileID: 0}
    - target: {fileID: -8679921383154817045, guid: a55c5aac5cb6bce42b5eadc701af911c, type: 3}
      propertyPath: m_LocalPosition.z
      value: -0.0088
      objectReference: {fileID: 0}
    - target: {fileID: -8679921383154817045, guid: a55c5aac5cb6bce42b5eadc701af911c, type: 3}
      propertyPath: m_LocalRotation.w
      value: 1
      objectReference: {fileID: 0}
    - target: {fileID: -8679921383154817045, guid: a55c5aac5cb6bce42b5eadc701af911c, type: 3}
      propertyPath: m_LocalRotation.x
      value: -0
      objectReference: {fileID: 0}
    - target: {fileID: -8679921383154817045, guid: a55c5aac5cb6bce42b5eadc701af911c, type: 3}
      propertyPath: m_LocalRotation.y
      value: -0
      objectReference: {fileID: 0}
    - target: {fileID: -8679921383154817045, guid: a55c5aac5cb6bce42b5eadc701af911c, type: 3}
      propertyPath: m_LocalRotation.z
      value: -0
      objectReference: {fileID: 0}
    - target: {fileID: -8679921383154817045, guid: a55c5aac5cb6bce42b5eadc701af911c, type: 3}
      propertyPath: m_LocalEulerAnglesHint.x
      value: 0
      objectReference: {fileID: 0}
    - target: {fileID: -8679921383154817045, guid: a55c5aac5cb6bce42b5eadc701af911c, type: 3}
      propertyPath: m_LocalEulerAnglesHint.y
      value: 0
      objectReference: {fileID: 0}
    - target: {fileID: -8679921383154817045, guid: a55c5aac5cb6bce42b5eadc701af911c, type: 3}
      propertyPath: m_LocalEulerAnglesHint.z
      value: 0
      objectReference: {fileID: 0}
    - target: {fileID: -7511558181221131132, guid: a55c5aac5cb6bce42b5eadc701af911c, type: 3}
      propertyPath: m_Materials.Array.data[0]
      value: 
      objectReference: {fileID: 2100000, guid: 39d5a06b34a59a74ea5a8698150cefe5, type: 2}
    - target: {fileID: -7511558181221131132, guid: a55c5aac5cb6bce42b5eadc701af911c, type: 3}
      propertyPath: m_Materials.Array.data[1]
      value: 
      objectReference: {fileID: 2100000, guid: 4d718d9c4c1cb974e857cee43ea8dd1f, type: 2}
    - target: {fileID: -7511558181221131132, guid: a55c5aac5cb6bce42b5eadc701af911c, type: 3}
      propertyPath: m_Materials.Array.data[2]
      value: 
      objectReference: {fileID: 2100000, guid: 39d5a06b34a59a74ea5a8698150cefe5, type: 2}
    - target: {fileID: -7511558181221131132, guid: a55c5aac5cb6bce42b5eadc701af911c, type: 3}
      propertyPath: m_Materials.Array.data[3]
      value: 
      objectReference: {fileID: 2100000, guid: 4d718d9c4c1cb974e857cee43ea8dd1f, type: 2}
    - target: {fileID: -7511558181221131132, guid: a55c5aac5cb6bce42b5eadc701af911c, type: 3}
      propertyPath: m_Materials.Array.data[4]
      value: 
      objectReference: {fileID: 2100000, guid: 39d5a06b34a59a74ea5a8698150cefe5, type: 2}
    - target: {fileID: -7511558181221131132, guid: a55c5aac5cb6bce42b5eadc701af911c, type: 3}
      propertyPath: m_Materials.Array.data[5]
      value: 
      objectReference: {fileID: 2100000, guid: 39d5a06b34a59a74ea5a8698150cefe5, type: 2}
    - target: {fileID: -7511558181221131132, guid: a55c5aac5cb6bce42b5eadc701af911c, type: 3}
      propertyPath: m_Materials.Array.data[6]
      value: 
      objectReference: {fileID: 2100000, guid: 39d5a06b34a59a74ea5a8698150cefe5, type: 2}
    - target: {fileID: -7511558181221131132, guid: a55c5aac5cb6bce42b5eadc701af911c, type: 3}
      propertyPath: m_Materials.Array.data[7]
      value: 
      objectReference: {fileID: 2100000, guid: 39d5a06b34a59a74ea5a8698150cefe5, type: 2}
    - target: {fileID: 919132149155446097, guid: a55c5aac5cb6bce42b5eadc701af911c, type: 3}
      propertyPath: m_Name
      value: Tree
      objectReference: {fileID: 0}
    m_RemovedComponents: []
  m_SourcePrefab: {fileID: 100100000, guid: a55c5aac5cb6bce42b5eadc701af911c, type: 3}
--- !u!4 &4348877735531515716 stripped
Transform:
  m_CorrespondingSourceObject: {fileID: -8679921383154817045, guid: a55c5aac5cb6bce42b5eadc701af911c, type: 3}
  m_PrefabInstance: {fileID: 4310200201400510639}
  m_PrefabAsset: {fileID: 0}
