%YAML 1.1
%TAG !u! tag:unity3d.com,2011:
--- !u!1 &2451086321843286072
GameObject:
  m_ObjectHideFlags: 0
  m_CorrespondingSourceObject: {fileID: 0}
  m_PrefabInstance: {fileID: 0}
  m_PrefabAsset: {fileID: 0}
  serializedVersion: 6
  m_Component:
  - component: {fileID: 5924731068750165149}
  m_Layer: 0
  m_Name: Tree_4
  m_TagString: Untagged
  m_Icon: {fileID: 0}
  m_NavMeshLayer: 0
  m_StaticEditorFlags: 0
  m_IsActive: 1
--- !u!4 &5924731068750165149
Transform:
  m_ObjectHideFlags: 0
  m_CorrespondingSourceObject: {fileID: 0}
  m_PrefabInstance: {fileID: 0}
  m_PrefabAsset: {fileID: 0}
  m_GameObject: {fileID: 2451086321843286072}
  m_LocalRotation: {x: 0, y: 0, z: 0, w: 1}
  m_LocalPosition: {x: 0, y: 0, z: 0}
  m_LocalScale: {x: 20, y: 20, z: 20}
  m_Children:
  - {fileID: 124072446321895146}
  m_Father: {fileID: 0}
  m_RootOrder: 0
  m_LocalEulerAnglesHint: {x: 0, y: 0, z: 0}
--- !u!1001 &446544962194194689
PrefabInstance:
  m_ObjectHideFlags: 0
  serializedVersion: 2
  m_Modification:
    m_TransformParent: {fileID: 5924731068750165149}
    m_Modifications:
    - target: {fileID: -8679921383154817045, guid: f83cc09ea40380746a8b57577eb13f95, type: 3}
      propertyPath: m_RootOrder
      value: 0
      objectReference: {fileID: 0}
    - target: {fileID: -8679921383154817045, guid: f83cc09ea40380746a8b57577eb13f95, type: 3}
      propertyPath: m_LocalScale.x
      value: 1
      objectReference: {fileID: 0}
    - target: {fileID: -8679921383154817045, guid: f83cc09ea40380746a8b57577eb13f95, type: 3}
      propertyPath: m_LocalScale.y
      value: 1
      objectReference: {fileID: 0}
    - target: {fileID: -8679921383154817045, guid: f83cc09ea40380746a8b57577eb13f95, type: 3}
      propertyPath: m_LocalScale.z
      value: 1
      objectReference: {fileID: 0}
    - target: {fileID: -8679921383154817045, guid: f83cc09ea40380746a8b57577eb13f95, type: 3}
      propertyPath: m_LocalPosition.x
      value: -0.0188
      objectReference: {fileID: 0}
    - target: {fileID: -8679921383154817045, guid: f83cc09ea40380746a8b57577eb13f95, type: 3}
      propertyPath: m_LocalPosition.y
      value: 0.0712
      objectReference: {fileID: 0}
    - target: {fileID: -8679921383154817045, guid: f83cc09ea40380746a8b57577eb13f95, type: 3}
      propertyPath: m_LocalPosition.z
      value: -0.0246
      objectReference: {fileID: 0}
    - target: {fileID: -8679921383154817045, guid: f83cc09ea40380746a8b57577eb13f95, type: 3}
      propertyPath: m_LocalRotation.w
      value: 1
      objectReference: {fileID: 0}
    - target: {fileID: -8679921383154817045, guid: f83cc09ea40380746a8b57577eb13f95, type: 3}
      propertyPath: m_LocalRotation.x
      value: -0
      objectReference: {fileID: 0}
    - target: {fileID: -8679921383154817045, guid: f83cc09ea40380746a8b57577eb13f95, type: 3}
      propertyPath: m_LocalRotation.y
      value: -0
      objectReference: {fileID: 0}
    - target: {fileID: -8679921383154817045, guid: f83cc09ea40380746a8b57577eb13f95, type: 3}
      propertyPath: m_LocalRotation.z
      value: -0
      objectReference: {fileID: 0}
    - target: {fileID: -8679921383154817045, guid: f83cc09ea40380746a8b57577eb13f95, type: 3}
      propertyPath: m_LocalEulerAnglesHint.x
      value: 0
      objectReference: {fileID: 0}
    - target: {fileID: -8679921383154817045, guid: f83cc09ea40380746a8b57577eb13f95, type: 3}
      propertyPath: m_LocalEulerAnglesHint.y
      value: 0
      objectReference: {fileID: 0}
    - target: {fileID: -8679921383154817045, guid: f83cc09ea40380746a8b57577eb13f95, type: 3}
      propertyPath: m_LocalEulerAnglesHint.z
      value: 0
      objectReference: {fileID: 0}
    - target: {fileID: -7511558181221131132, guid: f83cc09ea40380746a8b57577eb13f95, type: 3}
      propertyPath: m_Materials.Array.data[0]
      value: 
      objectReference: {fileID: 2100000, guid: 4d718d9c4c1cb974e857cee43ea8dd1f, type: 2}
    - target: {fileID: -7511558181221131132, guid: f83cc09ea40380746a8b57577eb13f95, type: 3}
      propertyPath: m_Materials.Array.data[1]
      value: 
      objectReference: {fileID: 2100000, guid: 4d718d9c4c1cb974e857cee43ea8dd1f, type: 2}
    - target: {fileID: -7511558181221131132, guid: f83cc09ea40380746a8b57577eb13f95, type: 3}
      propertyPath: m_Materials.Array.data[2]
      value: 
      objectReference: {fileID: 2100000, guid: 39d5a06b34a59a74ea5a8698150cefe5, type: 2}
    - target: {fileID: -7511558181221131132, guid: f83cc09ea40380746a8b57577eb13f95, type: 3}
      propertyPath: m_Materials.Array.data[3]
      value: 
      objectReference: {fileID: 2100000, guid: 39d5a06b34a59a74ea5a8698150cefe5, type: 2}
    - target: {fileID: 919132149155446097, guid: f83cc09ea40380746a8b57577eb13f95, type: 3}
      propertyPath: m_Name
      value: Tree
      objectReference: {fileID: 0}
    m_RemovedComponents: []
  m_SourcePrefab: {fileID: 100100000, guid: f83cc09ea40380746a8b57577eb13f95, type: 3}
--- !u!4 &124072446321895146 stripped
Transform:
  m_CorrespondingSourceObject: {fileID: -8679921383154817045, guid: f83cc09ea40380746a8b57577eb13f95, type: 3}
  m_PrefabInstance: {fileID: 446544962194194689}
  m_PrefabAsset: {fileID: 0}
