%YAML 1.1
%TAG !u! tag:unity3d.com,2011:
--- !u!21 &2100000
Material:
  serializedVersion: 6
  m_ObjectHideFlags: 0
  m_CorrespondingSourceObject: {fileID: 0}
  m_PrefabInstance: {fileID: 0}
  m_PrefabAsset: {fileID: 0}
  m_Name: FireSlimeMaterial
  m_Shader: {fileID: -6465566751694194690, guid: 1f971c0d625cdf44e92a941e70d91452, type: 3}
  m_ShaderKeywords: 
  m_LightmapFlags: 4
  m_EnableInstancingVariants: 0
  m_DoubleSidedGI: 0
  m_CustomRenderQueue: -1
  stringTagMap: {}
  disabledShaderPasses: []
  m_SavedProperties:
    serializedVersion: 3
    m_TexEnvs:
    - unity_Lightmaps:
        m_Texture: {fileID: 0}
        m_Scale: {x: 1, y: 1}
        m_Offset: {x: 0, y: 0}
    - unity_LightmapsInd:
        m_Texture: {fileID: 0}
        m_Scale: {x: 1, y: 1}
        m_Offset: {x: 0, y: 0}
    - unity_ShadowMasks:
        m_Texture: {fileID: 0}
        m_Scale: {x: 1, y: 1}
        m_Offset: {x: 0, y: 0}
    m_Floats:
    - Vector1_2ae8f71f1cee4b31b46092cae02f5bfc: 0.62
    - Vector1_482a58749bf64584b7a99c44312a7802: 0.49
    - Vector1_73ebbf8f694c418da01ec9912b1fc873: 0.097
    - Vector1_852d598f92074f3098138303f4ff4127: 0.752
    - Vector1_8f8f704ca796483296b4dc78443971da: 0.58
    - Vector1_b6e96ac5d95c4a72babcf2199dc9c495: 0.61
    m_Colors:
    - Color_bbb37c1b15064f6a9dab074add9aafa9: {r: 0.5, g: 0.14901961, b: 0, a: 0.3254902}
    - Vector2_17ad8197d3b7436d9fd9af322464ae3e: {r: 1, g: 1, b: 0, a: 0}
  m_BuildTextureStacks: []
