%YAML 1.1
%TAG !u! tag:unity3d.com,2011:
--- !u!21 &2100000
Material:
  serializedVersion: 6
  m_ObjectHideFlags: 0
  m_CorrespondingSourceObject: {fileID: 0}
  m_PrefabInstance: {fileID: 0}
  m_PrefabAsset: {fileID: 0}
  m_Name: FireTornadoMat
  m_Shader: {fileID: -6465566751694194690, guid: 2cad3e35c374a3549bb8788b4981f7df, type: 3}
  m_ShaderKeywords: 
  m_LightmapFlags: 4
  m_EnableInstancingVariants: 0
  m_DoubleSidedGI: 0
  m_CustomRenderQueue: -1
  stringTagMap: {}
  disabledShaderPasses: []
  m_SavedProperties:
    serializedVersion: 3
    m_TexEnvs:
    - Texture2D_269dc664d25641629f4b1dd5fe8379b8:
        m_Texture: {fileID: 2800000, guid: 03b5d3f3ecd7b8541ae3d573be00dafc, type: 3}
        m_Scale: {x: 1, y: 1}
        m_Offset: {x: 0, y: 0}
    - unity_Lightmaps:
        m_Texture: {fileID: 0}
        m_Scale: {x: 1, y: 1}
        m_Offset: {x: 0, y: 0}
    - unity_LightmapsInd:
        m_Texture: {fileID: 0}
        m_Scale: {x: 1, y: 1}
        m_Offset: {x: 0, y: 0}
    - unity_ShadowMasks:
        m_Texture: {fileID: 0}
        m_Scale: {x: 1, y: 1}
        m_Offset: {x: 0, y: 0}
    m_Floats:
    - Vector1_51a6359d97614119bfa3cca150735d75: 0.2
    - Vector1_91eac8648dbf4784bb73d017049fed6b: -0.1
    - Vector1_e3be345e778c49e9b138f86f6a44a6a2: 0.15
    m_Colors:
    - Color_82afe326e05f45fba637ffa063beee05: {r: 0.8313726, g: 0.2784314, b: 0.0509804, a: 1}
    - Color_f98c217955a548fba242faa8ea0e1664: {r: 0.03595095, g: 0.9811321, b: 0, a: 0}
  m_BuildTextureStacks: []
